%YAML 1.1
%TAG !u! tag:unity3d.com,2011:
--- !u!1 &5881818855957422330
GameObject:
  m_ObjectHideFlags: 0
  m_CorrespondingSourceObject: {fileID: 0}
  m_PrefabInstance: {fileID: 0}
  m_PrefabAsset: {fileID: 0}
  serializedVersion: 6
  m_Component:
  - component: {fileID: 6090694216093346323}
  - component: {fileID: 8353928708250938833}
  - component: {fileID: 6191018645999965421}
  m_Layer: 5
  m_Name: PasiveDamItem
  m_TagString: Untagged
  m_Icon: {fileID: 0}
  m_NavMeshLayer: 0
  m_StaticEditorFlags: 0
  m_IsActive: 1
--- !u!224 &6090694216093346323
RectTransform:
  m_ObjectHideFlags: 0
  m_CorrespondingSourceObject: {fileID: 0}
  m_PrefabInstance: {fileID: 0}
  m_PrefabAsset: {fileID: 0}
  m_GameObject: {fileID: 5881818855957422330}
  m_LocalRotation: {x: -0, y: -0, z: -0, w: 1}
  m_LocalPosition: {x: 0, y: 0, z: 0}
  m_LocalScale: {x: 1, y: 1, z: 1}
  m_Children: []
  m_Father: {fileID: 0}
  m_RootOrder: 0
  m_LocalEulerAnglesHint: {x: 0, y: 0, z: 0}
  m_AnchorMin: {x: 0, y: 1}
  m_AnchorMax: {x: 0, y: 1}
  m_AnchoredPosition: {x: 0, y: 0}
  m_SizeDelta: {x: 0, y: 0}
  m_Pivot: {x: 0, y: 1}
--- !u!222 &8353928708250938833
CanvasRenderer:
  m_ObjectHideFlags: 0
  m_CorrespondingSourceObject: {fileID: 0}
  m_PrefabInstance: {fileID: 0}
  m_PrefabAsset: {fileID: 0}
  m_GameObject: {fileID: 5881818855957422330}
  m_CullTransparentMesh: 0
--- !u!114 &6191018645999965421
MonoBehaviour:
  m_ObjectHideFlags: 0
  m_CorrespondingSourceObject: {fileID: 0}
  m_PrefabInstance: {fileID: 0}
  m_PrefabAsset: {fileID: 0}
  m_GameObject: {fileID: 5881818855957422330}
  m_Enabled: 1
  m_EditorHideFlags: 0
  m_Script: {fileID: 11500000, guid: 804b4f317901ffa4b9ad2b8474cd406d, type: 3}
  m_Name: 
  m_EditorClassIdentifier: 
  itemType: 3
  id: 0
  damageSprite: {fileID: 21300000, guid: 172774604c1bee84185a69041576525b, type: 3}
  coinSprite: {fileID: 21300000, guid: e7d29a79bc7fae248887c8a08a160303, type: 3}
  healthSprite: {fileID: 21300000, guid: b97c91e8b348f3f4ebdc11f5c82182cd, type: 3}
  passiveSprite: {fileID: 21300000, guid: ae496f5dad56ea645b72d374a0376368, type: 3}
